:100000000A020058A6010058C6000A8B29040058AD
:10001000297D099B5F0009EBE00000544CF07DD383
:10002000CC000C8B8C0140F821000C8B4204009119
:10003000F9FFFF1700000014480000000000000056
:100040000000084000000000010000000000000067
:10005000020000000000000001000000000000009D
:10006000020000000000000002000000000000008C
:10007000010000000000000001000000000000007E
:10008000010000000000000001000000000000006E
:08009000030000000000000065
:00000001FF
