:1000000041010058E6000058C4020058C600048BA5
:10001000C90042F82001018BE00300CB000000146E
:080020003000000000000000A8
:1000280004000000000000000200000000000000C2
:1000380003000000000000000400000000000000B1
:10004800050000000000000006000000000000009D
:100058000700000000000000000008400000000049
:00000001FF
